,h,kpts,Nc,Nc_cg,E_bind,time
0,0.2,1,4,7,-0.201737,9.171429
1,0.2,1,4,9,-0.189998,13.057143
2,0.2,1,4,5,-0.222098,9.571429
3,0.2,1,4,8,-0.195162,12.857143
4,0.2,1,4,0,-0.239037,7.666667
5,0.2,1,4,6,-0.210347,11.352941
6,0.2,1,7,9,-0.19,18.485714
7,0.2,1,7,8,-0.195164,18.857143
8,0.2,1,7,0,-0.20174,16.6
9,0.2,1,9,0,-0.19,17.628571
10,0.2,1,5,7,-0.201739,11.142857
11,0.2,1,5,9,-0.189999,12.742857
12,0.2,1,5,8,-0.195164,12.428571
13,0.2,1,5,0,-0.222099,9.485714
14,0.2,1,5,6,-0.210348,10.411765
15,0.2,1,8,9,-0.19,15.628571
16,0.2,1,8,0,-0.195164,15.285714
17,0.2,1,2,4,-0.239,6.7
18,0.2,1,2,7,-0.201702,9.428571
19,0.2,1,2,9,-0.189963,-2457.2
20,0.2,1,2,5,-0.222062,7.8
21,0.2,1,2,8,-0.195127,10.771429
22,0.2,1,2,0,-0.311098,5.096774
23,0.2,1,2,6,-0.210311,8.617647
24,0.2,1,2,3,-0.265378,5.83871
25,0.2,1,1,4,-0.238754,6.3
26,0.2,1,1,7,-0.201462,9.257143
27,0.2,1,1,9,-0.189726,11.428571
28,0.2,1,1,5,-0.221819,7.571429
29,0.2,1,1,8,-0.194889,10.657143
30,0.2,1,1,0,-0.400416,3.933333
31,0.2,1,1,2,-0.310839,5.290323
32,0.2,1,1,6,-0.21007,8.382353
33,0.2,1,1,3,-0.265127,5.645161
34,0.2,1,6,7,-0.201739,11.885714
35,0.2,1,6,9,-0.19,13.657143
36,0.2,1,6,8,-0.195164,13.2
37,0.2,1,6,0,-0.210349,11.0
38,0.2,1,3,4,-0.239031,6.9
39,0.2,1,3,7,-0.201732,10.542857
40,0.2,1,3,9,-0.189992,12.542857
41,0.2,1,3,5,-0.222092,8.285714
42,0.2,1,3,8,-0.195157,11.542857
43,0.2,1,3,0,-0.265409,6.129032
44,0.2,1,3,6,-0.210341,9.352941
