,water cluster size,sample #,total energy / eV,binding energy / eV
0,7,0,-14.480341972919454,-0.1867219622186127
1,7,1,-14.534368308293804,-0.6818538134232739
2,7,2,-14.428747432354406,-0.537156123627085
3,7,3,-14.4869270267337,-0.5895008028494146
4,7,4,-14.558545409635414,-0.4525962241170163
5,7,5,-14.52851419534351,-0.6431315481558784
6,7,6,-14.54079657530819,-0.5149790906252321
7,7,7,-14.449313675208453,-0.6949723953127176
8,7,8,-14.501982571101331,-0.41063844045331166
9,7,9,-14.42675253899943,-0.7285939061488165
10,7,10,-14.576589729142375,-0.3211867720186632
11,7,11,-14.468277752979974,-0.231195465403772
12,7,12,-14.563122758699526,-0.31710080098888227
13,7,13,-14.546963523201287,-0.9021627140310073
14,7,14,-14.557340973129515,-0.6238812072430875
15,7,15,-14.473323115905437,-0.3626373245212733
16,7,16,-14.444756780140644,-0.5066976099681852
17,7,17,-14.507803084655638,-0.6477898322230686
18,7,18,-14.428793423052303,-0.7084370548329417
19,7,19,-14.560506504806924,-0.694713220393524
20,7,20,-14.548399951998983,-0.5749039901724302
21,7,21,-14.522899438584746,-0.2338145411478223
22,7,22,-14.493813085519319,-0.4406796138262905
23,7,23,-14.536597335353669,-0.5155259651266562
24,7,24,-14.480328779595002,-0.6457873813632204
25,7,25,-14.574269510911014,-0.3004019138218439
26,7,26,-14.494899211182451,-0.7730025790393427
27,7,27,-14.599202934573592,-0.22538043274374786
28,7,28,-14.57453408851928,-0.3816548929099355
29,7,29,-14.551508904586065,-1.0189102872568014
30,7,30,-14.527254143969817,-0.3697800096211665
31,8,0,-14.565262024801017,-1.05388551309116
32,8,1,-14.565736169738166,-1.1209490025173494
33,8,2,-14.558796982608502,-0.564021908234352
34,8,3,-14.421402179955214,-0.7050496490282683
35,8,4,-14.488273156108438,-0.7315363212831869
36,8,5,-14.582882340929755,-0.4445898700401898
37,8,6,-14.571845331827307,-1.1268318779410578
38,8,7,-14.532939510339851,-0.5656207654838283
39,8,8,-14.521874371663253,-1.0842599080896065
40,8,9,-14.582095521541497,-0.23369127793922928
41,8,10,-14.486508504447158,-1.2381999445926937
42,8,11,-14.53279201977795,-1.415328441723517
43,8,12,-14.559124605560191,-0.595164593317179
44,8,13,-14.464993958285252,-0.6702597034844757
45,8,14,-14.43842316146898,-1.0004286751067752
46,8,15,-14.551904051362518,-0.8084191456935628
47,8,16,-14.492045636813764,-1.1505854667071134
48,8,17,-14.544247482885408,-0.9118565922665169
49,8,18,-14.518093344064024,-0.8487063583149563
50,8,19,-14.508186720222316,-1.1591801004727103
51,8,20,-14.562915407517234,-0.3200302468936371
52,8,21,-14.58674294900298,-0.5097543868712364
53,8,22,-14.58147889071352,-1.1019102075607208
54,8,23,-14.565403090667946,-0.6128135112409723
55,8,24,-14.515344447325251,-0.4186207835777651
56,8,25,-14.502481519043869,-0.7082994638796976
57,8,26,-14.53807477694491,-0.870273192080262
58,8,27,-14.57791707544515,-0.9590262032241128
59,8,28,-14.452452584601595,-0.6552845894707389
60,8,29,-14.484349376007604,-0.43044912346171316
61,8,30,-14.57121435045805,-0.708904370739873
62,9,0,-14.581216232889538,-0.7218632757024466
63,9,1,-14.519929465269128,-0.9781601224343603
64,9,2,-14.52276306494325,-0.6883999873926427
65,9,3,-14.54846496435788,-0.5989725235401693
66,9,4,-14.543721164847348,-1.4066286035205735
67,9,5,-14.487585398580793,-1.1007806963180542
68,9,6,-14.372319137480241,-0.9741242548239484
69,9,7,-14.50772004956492,-1.1036102474671452
70,9,8,-14.561342952693707,-1.3636611681787656
71,9,9,-14.553087167441074,-1.1188530938838994
72,9,10,-14.569431591659672,-0.8614077753713332
73,9,11,-14.545066443009214,-1.1330004888847611
74,9,12,-14.57478955594864,-1.5278937031893065
75,9,13,-14.575303972203967,-0.7907870603006018
76,9,14,-14.503100693038254,-0.9561548075511723
77,9,15,-14.49304092113236,-1.0580644350607429
78,9,16,-14.595091250810555,-0.8933876204076228
79,9,17,-14.579654299318639,-1.0782475834245417
80,9,18,-14.592818754852724,-0.6950931843016974
81,9,19,-14.568392950013184,-0.6313025342041669
82,9,20,-14.566220783115439,-1.2708922621401655
83,9,21,-14.568550586511233,-0.8397881874330153
84,9,22,-14.515681797332226,-1.416882109896278
85,9,23,-14.602683842778724,-1.01634863568205
86,9,24,-14.607929371538345,-1.1828457795097904
87,9,25,-14.537889266580006,-0.37000209292710906
88,9,26,-14.50191868075072,-1.1856222113117951
89,9,27,-14.494928896387906,-1.2863641623254694
90,9,28,-14.466706885193695,-1.1879427993889067
91,9,29,-14.586528048551783,-1.0649240328656902
92,9,30,-14.54757276517537,-0.8097030231029123
93,10,0,-14.548402444329424,-1.0823914004624555
94,10,1,-14.482778258368555,-1.097731628987077
95,10,2,-14.500725494172535,-1.3103030568573786
96,10,3,-14.584298080764462,-1.314174752901863
97,10,4,-14.570190288024062,-1.3126216374824935
98,10,5,-14.581418183404303,-1.2887008788457592
99,10,6,-14.548647546459323,-0.3122847800062232
100,10,7,-14.45691026306468,-0.6861401108327811
101,10,8,-14.433438083809383,-1.7621825779591518
102,10,9,-14.501897302046567,-1.2314817314680795
103,10,10,-14.56796182863823,-1.0189803198477136
104,10,11,-14.579633294859695,-0.6998447242370389
105,10,12,-14.574552118449668,-1.1506848764746849
106,10,13,-14.458641417867323,-1.2747570180313232
107,10,14,-14.57003129096504,-1.1323069697349126
108,10,15,-14.561955069018746,-1.398183818183071
109,10,16,-14.569557919826373,-1.1347606529855625
110,10,17,-14.4275541556158,-0.9691751665376387
111,10,18,-14.56159137557925,-0.95090669784841
112,10,19,-14.533137688460782,-1.0438768773333038
113,10,20,-14.526529554929917,-1.556168939803939
114,10,21,-14.576655670415128,-0.999147988800047
115,10,22,-14.536696751620083,-1.6012158955067264
116,10,23,-14.50501072764326,-1.2341302752457466
117,10,24,-14.56430567279708,-1.149424555029043
118,10,25,-14.448282188460231,-0.6987901181938128
119,10,26,-14.585928404580867,-1.2369801501358495
120,10,27,-14.558484821454982,-0.9944109194572093
121,10,28,-14.548989890748993,-1.430681093834096
122,10,29,-14.520395380252458,-1.7393015912185206
123,10,30,-14.487514182789939,-1.4152402582182049
124,11,0,-14.568985821713909,-1.2177678669567626
125,11,1,-14.513785478629046,-1.3063078328883932
126,11,2,-14.554533266318105,-1.7904028082705565
127,11,3,-14.549546908053298,-1.3602083439250805
128,11,4,-14.563879829742264,-1.5275537676853048
129,11,5,-14.530187711510594,-1.3198468235470955
130,11,6,-14.57865042467033,-1.926904477581644
131,11,7,-14.524110171591774,-1.7433816808743074
132,11,8,-14.530102039364582,-1.4066977688315774
133,11,9,-14.572553475332548,-1.808787907655045
134,11,10,-14.54161149295779,-1.5291435915149236
135,11,11,-14.417755613610723,-1.0633186679316964
136,11,12,-14.5358358887878,-1.1070664923851439
137,11,13,-14.571944221692867,-0.9837298474721479
138,11,14,-14.502930398300816,-1.572212216772158
139,11,15,-14.55305775193635,-1.7324066390373218
140,11,16,-14.561345056627141,-1.5029554083905907
141,11,17,-14.566388997408316,-1.30651391640194
142,11,18,-14.480851475586995,-1.532321174103373
143,11,19,-14.573221756051321,-1.0744819417144527
144,11,20,-14.499023530486442,-1.1810275982367386
145,11,21,-14.591009414689463,-1.0797177781127516
146,11,22,-14.500052590885474,-1.2531569441571264
147,11,23,-14.55295327884073,-1.5788345795938596
148,11,24,-14.515101998569026,-2.0186092539151446
149,11,25,-14.521810190539156,-1.177061180296647
150,11,26,-14.55092030080547,-1.2795409790892052
151,11,27,-14.574971669602853,-1.149524957982436
152,11,28,-14.579211482998046,-1.4972931299311938
153,11,29,-14.577977333200247,-1.179666154539433
154,11,30,-14.484660982214272,-1.5410186304671925
155,12,0,-14.51875605144028,-1.521642575160513
156,12,1,-14.52450287560766,-0.9561609846726924
157,12,2,-14.550815984854944,-1.249182143558869
158,12,3,-14.487067524955695,-1.4054654756291427
159,12,4,-14.513567076263081,-1.1354879950229133
160,12,5,-14.53354590474643,-1.9462942539016979
161,12,6,-14.559901054176368,-1.8889433354934795
162,12,7,-14.425373713098272,-1.2401774207038443
163,12,8,-14.528130485467646,-1.372446600458801
164,12,9,-14.548079433269145,-2.096552928370329
165,12,10,-14.546649815788342,-2.048722047986331
166,12,11,-14.548704007900147,-1.2699028964910326
167,12,12,-14.453817072104343,-1.2813847122980064
168,12,13,-14.534081444600414,-2.529423076614222
169,12,14,-14.557512113841065,-1.8899563041704255
170,12,15,-14.490645140146539,-1.7569608018533813
171,12,16,-14.558323265026404,-0.9988922314737465
172,12,17,-14.547780327697872,-1.5294923009899435
173,12,18,-14.543169168424768,-2.1152493984201897
174,12,19,-14.508671176091646,-2.1199376515290282
175,12,20,-14.522999045123294,-1.5168525187475268
176,12,21,-14.5450733599782,-2.2131128119956713
177,12,22,-14.513814615292793,-1.9966998272543606
178,12,23,-14.554678493399699,-1.6789015416764812
179,12,24,-14.587675420516588,-2.0653537586520088
180,12,25,-14.563677433981507,-1.9081180808579745
181,12,26,-14.449757827556546,-2.0420728432067676
182,12,27,-14.599351643113103,-1.2213491256391364
183,12,28,-14.564282965650229,-1.7645389487883847
184,12,29,-14.51367627086152,-1.9352980888187403
185,12,30,-14.478692736202547,-1.6563824954597806
