,z_value,energy
0,4.243049729999996,-14.926338255867208
1,5.243049729999996,-14.79939839439526
2,6.243049729999996,-14.658363203555272
3,7.243049729999996,-14.65057462479948
4,8.243049729999996,-14.658012392146428
5,9.243049729999996,-14.66042893996999
6,10.243049729999996,-14.65821484409582
7,11.243049729999996,-14.650983589038617
8,12.243049729999996,-14.658991817007665
9,13.243049729999996,-14.80028540782068
10,14.243049729999996,-14.926338266631149
11,15.243049729999996,-14.799398390348786
12,16.243049729999996,-14.658363199601313
13,17.243049729999996,-14.650574623901504
14,18.243049729999996,-14.658012392053354
15,19.243049729999996,-14.660428940004085
16,20.243049729999996,-14.658214844110361
17,21.243049729999996,-14.650983589048243
18,22.243049729999996,-14.65899181202347
19,23.243049729999996,-14.800285408734032
20,24.243049729999996,-14.926338473133331
21,25.243049729999996,-14.799398388635975
22,26.243049729999996,-14.65836317469844
23,27.243049729999996,-14.650574625065541
24,28.243049729999996,-14.658012392020112
