,d_OO / A,E_rep / eV
0,0.10651611634225794,19366.38256869022
1,0.185363094569041,10852.786093207558
2,0.27816051232298394,6287.769561825639
3,0.3746826182295603,3816.8809565485876
4,0.4726529997693147,2390.2919655146366
5,0.5713270971855834,1528.8198522197638
6,0.670394246519224,992.618701414461
7,0.7697026955608582,651.7160937434916
8,0.8691697379345555,431.5912333864459
9,0.9687465236731415,287.7742365703074
10,1.068402368453182,192.94723539270666
11,1.168117038101894,129.96235729119394
12,1.2678766535004553,87.87638509965542
13,1.367671379491099,59.61495579836334
14,1.4674940531622804,40.55741591091467
15,1.567339334622286,27.660414141151897
16,1.667203162077676,18.905600671313692
17,1.7670823912396878,12.946665410371192
18,1.8669745502327943,8.88118006643263
19,1.9668776690492258,6.101719887756752
20,2.0667901583837884,4.197951367620849
21,2.1667107219422848,2.8918109067160147
22,2.2666382919132086,1.9943483817497136
23,2.3665719807677092,1.3768553407034014
24,2.466511044763913,0.951468617065405
25,2.5664548559696,0.6580919652445104
26,2.6664028805710345,0.45554942126395115
27,2.766354661879977,0.3155841696243048
28,2.8663098068932906,0.21877740542739582
29,2.9662679755679897,0.15176666315243464
30,3.0662288721926467,0.10534602025825107
31,3.1661922383922554,0.07316622973362436
32,3.2661578474168897,0.05084386450823252
33,3.366125499447473,0.035349859135977435
34,3.4660950177134597,0.024589247086302963
35,3.5660662452632086,0.017111946765315134
36,3.6660390422625353,0.011913502528327222
37,3.766013283723356,0.008297655949883699
38,3.865988857584608,0.005781468339504868
39,3.965965663083319,0.00402976004880838
40,4.06594360936591,0.0028097695236125727
41,4.165922614299388,0.0019597714154021245
42,4.265902603449663,0.0013673402545949344
43,4.365883509200192,0.0009542846867340956
44,4.4658652699889805,0.0006661984588659829
45,4.565847829645806,0.0004652090261458571
46,4.665831136814628,0.00032494238293068585
47,4.765815144448687,0.00022702491039715004
48,4.865799809367831,0.0001586518311392365
49,4.96578509186932,0.00011089625064531317
