38
Lattice="9.803408 0.0 0.0 0.0 8.49 0.0 0.0 0.0 13.768825579742726" Properties=species:S:1:pos:R:3:tags:I:1 pbc="T T F"
C        8.09529072       0.95333115       4.73040400        1
C        9.31777177       1.66042301       4.72341240        1
C        9.32357520       3.07792860       4.72181320        1
C        8.09555708       3.78482451       4.72865920        1
C        8.09599039       5.19380920       4.72917880        1
C        9.30918977       5.90321119       4.72160760        1
C        9.31497084       7.31892718       4.72243320        1
C        8.09566364       8.03021208       4.72985200        1
C        5.65813467       0.94930230       4.73274440        1
C        6.87278545       1.66077194       4.73419360        1
C        6.86709378       3.07824562       4.73387760        1
C        5.64769247       3.77673218       4.73347440        1
C        5.66611748       5.20306398       4.73367400        1
C        6.88265993       5.90332869       4.73455000        1
C        6.87633477       7.31901098       4.73404280        1
C        5.66004006       8.03259030       4.73278040        1
C        3.19379582       0.93395765       4.72084680        1
C        4.42941727       1.63924512       4.72711080        1
C        4.42222824       3.04321359       4.72743280        1
C        3.19393503       3.71567329       4.71999280        1
C        4.47284000       5.93079766       4.72673800        1
C        4.44256188       7.32618622       4.72676800        1
C        3.19422237       8.02019176       4.72027760        1
C        0.72917945       0.94874366       4.71899400        1
C        1.95792880       1.63884593       4.71797240        1
C        1.96523411       3.04308021       4.71722800        1
C        0.74003858       3.77628807       4.71668000        1
C        0.72241098       5.20276293       4.71567800        1
C        1.91650862       5.93023562       4.71368440        1
C        1.94592080       7.32582658       4.71611280        1
C        0.72803823       8.03219594       4.71844600        1
B        3.19523467       5.19032508       4.71820000        1
O        8.73455000       8.73898326       7.31512863        2
H        8.73455000       8.82080094       8.26882558        2
H        8.73455000       9.64170605       6.99681549        2
O        8.73454999       8.73900269      10.10406850        3
H        9.49150033       8.16732753      10.23230925        3
H        7.97759979       8.16732762      10.23230923        3
